<svg width="59" height="60" viewBox="0 0 59 60" fill="none" xmlns="http://www.w3.org/2000/svg">
<rect x="23.002" y="2.7998" width="16.35" height="54.4" rx="4" fill="white"/>
<path d="M1.91348 2.9269C0.830187 3.01802 0 3.9292 0 5.02262V53.1027C0 54.1252 0.728946 54.9959 1.73125 55.168L23.6705 59.076C24.2881 59.1873 24.9158 59.0152 25.3916 58.6204C25.8674 58.2154 26.1408 57.6282 26.1408 57.0106V3.07876C26.1408 2.48143 25.8978 1.9246 25.4625 1.52975C25.0271 1.12478 24.4501 0.932421 23.8527 0.983042L1.91348 2.9269ZM20.3902 32.9149C19.4892 32.9149 18.7501 31.6291 18.7501 30.0396C18.7501 28.4501 19.479 27.1643 20.3902 27.1643C21.2913 27.1643 22.0304 28.4501 22.0304 30.0396C22.0202 31.6291 21.2913 32.9149 20.3902 32.9149Z" fill="#F6AA7B"/>
<path d="M40.8508 23.2807H41.3508V22.7807V17.1738L57.161 28.9147L41.3508 40.581V34.9602V34.4602H40.8508H28.0273V23.2807H40.8508Z" fill="#5CBBB8" stroke="white"/>
<path d="M18.75 30.0398C18.75 31.6293 19.4789 32.9151 20.3901 32.9151C21.2912 32.9151 22.0303 31.6293 22.0303 30.0398C22.0303 28.4503 21.3013 27.1646 20.3901 27.1646C19.4789 27.1646 18.75 28.4503 18.75 30.0398Z" fill="white"/>
<path d="M39.3525 20.917V4.47522C39.3525 4.03988 39.1803 3.62478 38.8766 3.32106C38.5729 3.01733 38.1477 2.84521 37.7225 2.84521H27.5273V6.11535H36.0823V20.917H39.3525Z" fill="#F6AA7B"/>
<path d="M27.5273 53.9634V57.2335H37.7225C38.1477 57.2335 38.5729 57.0614 38.8766 56.7577C39.1803 56.454 39.3525 56.0287 39.3525 55.6035V36.7319H36.0823V53.9634H27.5273Z" fill="#F6AA7B"/>
</svg>
