<svg width="53" height="53" viewBox="0 0 53 53" fill="none" xmlns="http://www.w3.org/2000/svg">
<path d="M2.26761 53H50.7324C51.9773 53 53 51.9773 53 50.7324V2.26761C53 1.02265 51.9773 0 50.7324 0H2.26761C1.02265 0 0 1.02265 0 2.26761V50.7324C0 51.9773 1.02265 53 2.26761 53Z" fill="#6F9BD4"/>
<path opacity="0.5" d="M7.73573 43.6171H45.2181C46.3742 43.6171 47.2634 42.6834 47.2634 41.5718V34.7245C47.2634 33.5685 46.3297 32.6792 45.2181 32.6792H7.73573C6.57969 32.6792 5.69043 33.6129 5.69043 34.7245V41.5718C5.69043 42.7279 6.62416 43.6171 7.73573 43.6171Z" fill="white"/>
<path d="M38.6377 37.481L39.1713 36.5473L40.4162 37.3032L40.3718 35.9248H41.4389V37.3032L42.6838 36.5473L43.2174 37.481L42.0169 38.148L43.2174 38.8149L42.6838 39.7486L41.4389 38.9928V40.3711H40.3718L40.4162 39.0372L39.1713 39.7486L38.6377 38.8149L39.8382 38.148L38.6377 37.481Z" fill="white"/>
<path d="M31.4365 37.481L31.9701 36.5473L33.215 37.3032V35.9248H34.2822V37.3032L35.5271 36.5473L36.0607 37.481L34.8602 38.148L36.0607 38.8149L35.5271 39.7486L34.2822 38.9928V40.3711H33.215V39.0372L31.9701 39.7486L31.4365 38.8149L32.637 38.148L31.4365 37.481Z" fill="white"/>
<path d="M24.232 37.481L24.7655 36.5473L26.0105 37.3032V35.9248H27.0776V37.3032L28.3226 36.5473L28.8561 37.481L27.6556 38.148L28.8561 38.8149L28.3226 39.7486L27.0776 38.9928V40.3711H25.966V39.0372L24.7211 39.7486L24.1875 38.8149L25.388 38.148L24.232 37.481Z" fill="white"/>
<path d="M16.9844 37.481L17.5179 36.5473L18.7629 37.3032V35.9248H19.83V37.3032L21.075 36.5473L21.6085 37.481L20.408 38.148L21.6085 38.8149L21.075 39.7486L19.83 38.9928V40.3711H18.7629V39.0372L17.5179 39.7486L16.9844 38.8149L18.1849 38.148L16.9844 37.481Z" fill="white"/>
<path d="M9.78125 37.4825L10.3148 36.5488L11.5598 37.3046V35.9263H12.6269V37.3046L13.8719 36.5488L14.4054 37.4825L13.2049 38.1494L14.4054 38.8164L13.8719 39.7501L12.6269 38.9942V40.3726H11.5598V39.0387L10.3148 39.7501L9.78125 38.8164L10.9818 38.1494L9.78125 37.4825Z" fill="white"/>
<path opacity="0.5" d="M26.4996 28.2784C33.0561 28.2784 38.3712 22.9633 38.3712 16.4068C38.3712 9.85027 33.0561 4.53516 26.4996 4.53516C19.943 4.53516 14.6279 9.85027 14.6279 16.4068C14.6279 22.9633 19.943 28.2784 26.4996 28.2784Z" fill="white"/>
<path d="M20.542 16.9833V22.6301C20.542 23.3415 21.12 23.9195 21.8314 23.9195H31.1242C31.8356 23.9195 32.4136 23.3415 32.4136 22.6301V16.9833C32.4136 16.2719 31.8356 15.6938 31.1242 15.6938H21.8314C21.12 15.7383 20.542 16.3163 20.542 16.9833ZM25.9665 19.6955C25.6108 19.5177 25.344 19.1175 25.344 18.6729C25.344 18.0504 25.8331 17.5613 26.4556 17.5613C27.0781 17.5613 27.5672 18.0504 27.5672 18.6729C27.5672 19.1175 27.3004 19.5177 26.9447 19.6955L27.3004 22.0076H25.6108L25.9665 19.6955Z" fill="#6F9BD4"/>
<path d="M29.1674 14.8053L29.3453 13.916C29.6565 12.3598 28.6339 10.848 27.1221 10.5368C25.5659 10.2256 24.0542 11.2482 23.7429 12.76L23.5651 13.6492L21.9199 13.338L22.0978 12.4487C22.5869 10.0032 24.9879 8.40258 27.4333 8.89167C29.8788 9.38076 31.4795 11.7818 30.9904 14.2272L30.8125 15.1165L29.1674 14.8053Z" fill="#6F9BD4"/>
<path opacity="0.2" d="M19.8749 47.5764H33.1249C33.4361 47.5764 33.7029 47.3097 33.7029 46.9984C33.7029 46.6872 33.4361 46.4204 33.1249 46.4204H19.8749C19.5636 46.4204 19.2968 46.6872 19.2968 46.9984C19.2524 47.3541 19.5192 47.5764 19.8749 47.5764Z" fill="#B7CDEA"/>
</svg>
