<svg width="26" height="26" viewBox="0 0 26 26" fill="none" xmlns="http://www.w3.org/2000/svg">
<g clip-path="url(#clip0_2960_7289)">
<path d="M20.2266 16.2881H5.86719C5.69531 16.2881 5.55469 16.4287 5.55469 16.6006L5.55078 18.4756C5.55078 18.6475 5.69141 18.7881 5.86328 18.7881H20.2266C20.3984 18.7881 20.5391 18.6475 20.5391 18.4756V16.6006C20.5391 16.4287 20.3984 16.2881 20.2266 16.2881ZM20.2266 20.0381H5.85547C5.68359 20.0381 5.54297 20.1787 5.54297 20.3506L5.53906 22.2256C5.53906 22.3975 5.67969 22.5381 5.85156 22.5381H20.2266C20.3984 22.5381 20.5391 22.3975 20.5391 22.2256V20.3506C20.5391 20.1787 20.3984 20.0381 20.2266 20.0381ZM20.2266 12.5381H5.875C5.70313 12.5381 5.5625 12.6787 5.5625 12.8506L5.55859 14.7256C5.55859 14.8975 5.69922 15.0381 5.87109 15.0381H20.2266C20.3984 15.0381 20.5391 14.8975 20.5391 14.7256V12.8506C20.5391 12.6787 20.3984 12.5381 20.2266 12.5381ZM24.3867 7.1084L13.7578 2.68262C13.5294 2.58785 13.2844 2.53906 13.0371 2.53906C12.7898 2.53906 12.5449 2.58785 12.3164 2.68262L1.69141 7.1084C0.996094 7.40137 0.539062 8.08106 0.539062 8.83887V22.2256C0.539062 22.3975 0.679687 22.5381 0.851562 22.5381H3.97656C4.14844 22.5381 4.28906 22.3975 4.28906 22.2256V12.5381C4.28906 11.8506 4.85938 11.2881 5.5625 11.2881H20.5156C21.2187 11.2881 21.7891 11.8506 21.7891 12.5381V22.2256C21.7891 22.3975 21.9297 22.5381 22.1016 22.5381H25.2266C25.3984 22.5381 25.5391 22.3975 25.5391 22.2256V8.83887C25.5391 8.08106 25.082 7.40137 24.3867 7.1084Z" fill="black"/>
</g>
<defs>
<clipPath id="clip0_2960_7289">
<rect width="25" height="25" fill="white" transform="translate(0.539062 0.0380859)"/>
</clipPath>
</defs>
</svg>
