<svg width="375" height="159" viewBox="0 0 375 159" fill="none" xmlns="http://www.w3.org/2000/svg">
<path d="M340.833 141.275V110.404L313.655 94.7448V63.4254L286.542 47.7657V16.4463L258.915 0.529846L231.287 16.4463V47.7657L204.11 63.4254V94.7448L176.932 110.404V141.403H-7.20612V142.301H176.997L204.56 158.218L231.737 142.558L258.915 158.218L286.092 142.558L313.27 158.218L340.897 142.301V142.237H381.31V141.339H340.833V141.275ZM232.187 17.0239L258.85 1.62089L285.514 17.0239V47.8298L277.354 52.5791L258.915 63.1686L238.933 51.6164L232.251 47.7657V17.0239H232.187ZM231.287 141.724L204.624 157.127L177.96 141.724V110.918L204.624 95.5149L219.723 104.243L231.287 110.918V141.724ZM218.373 102.446L205.009 94.7448V63.9388L231.673 48.5358L246.836 57.3284L258.336 63.9388V94.7448L246.836 101.355L231.673 110.148L218.373 102.446ZM285.578 141.724L258.915 157.127L232.251 141.724V110.918L238.933 107.067L258.915 95.5149L277.418 106.169L285.578 110.918V141.724ZM272.728 102.446L259.364 94.7448V63.9388L272.728 56.2373L286.092 48.5358L312.756 63.9388V94.7448L299.392 102.446L286.028 110.148L272.728 102.446ZM339.869 141.724L313.205 157.127L286.542 141.724V110.918L298.107 104.243L313.205 95.5149L339.869 110.918V141.724Z" fill="white"/>
</svg>
