<svg width="375" height="159" viewBox="0 0 375 159" fill="none" xmlns="http://www.w3.org/2000/svg">
<path d="M339.74 141.916L313.077 157.319L286.413 141.916V111.11L297.978 104.436L313.077 95.7075L339.74 111.11V141.916ZM272.535 102.575L259.172 94.8731V64.0672L272.535 56.3657L285.899 48.6642L312.563 64.0672V94.8731L299.199 102.575L285.899 110.276L272.535 102.575ZM340.704 141.403V110.533L313.527 94.9373V63.6179L286.349 47.9582V16.6388L258.722 0.722397L231.095 16.6388V47.9582L203.917 63.6179V94.9373L176.74 110.597V141.596H-7.33459V142.494H176.868L204.431 158.41L231.609 142.751L258.786 158.41L285.964 142.751L313.141 158.41L340.768 142.494V142.366H381.181V141.467H340.704V141.403ZM232.058 17.1522L258.722 1.74926L285.385 17.1522V47.9582L277.226 52.7075L258.722 63.3612L238.74 51.809L232.058 47.9582V17.1522ZM231.095 141.916L204.431 157.319L177.768 141.916V111.11L204.431 95.7075L219.53 104.436L231.095 111.11V141.916ZM218.245 102.575L204.881 94.8731V64.0672L231.544 48.6642L246.707 57.4567L258.208 64.0672V94.8731L246.707 101.484L231.609 110.276L218.245 102.575ZM285.45 141.916L258.786 157.319L232.123 141.916V111.11L238.805 107.26L258.786 95.7075L277.29 106.361L285.45 111.11V141.916Z" fill="#B4B4B4"/>
</svg>
