<svg width="373" height="159" viewBox="0 0 373 159" fill="none" xmlns="http://www.w3.org/2000/svg">
<path d="M331.067 141.581L304.403 156.984L277.74 141.581V110.775L289.305 104.1L304.403 95.3716L331.067 110.775V141.581ZM263.862 102.303L250.498 94.6015V63.7955L263.862 56.094L277.226 48.3925L303.889 63.7955V94.6015L290.525 102.303L277.161 110.004L263.862 102.303ZM331.966 141.131V110.261L304.789 94.6015V63.2821L277.611 47.6224V16.303L249.984 0.386566L222.357 16.303V47.6224L195.179 63.2821V94.6015L168.13 110.261V141.26H-16.0083V142.158H168.195L195.757 158.075L222.935 142.415L250.112 158.075L277.29 142.415L304.467 158.075L332.095 142.158V142.094H372.507V141.196H331.966V141.131ZM223.385 16.8164L250.048 1.41343L276.712 16.8164V47.6224L268.552 52.3716L250.048 63.0254L230.067 51.4731L223.385 47.6224V16.8164ZM222.421 141.581L195.757 156.984L169.094 141.581V110.775L195.757 95.3716L210.856 104.1L222.421 110.775V141.581ZM209.571 102.303L196.207 94.6015V63.7955L222.871 48.3925L238.034 57.1851L249.534 63.7955V94.6015L238.034 101.212L222.871 110.004L209.571 102.303ZM276.712 141.581L250.048 156.984L223.385 141.581V110.775L230.067 106.924L250.048 95.3716L268.552 106.025L276.712 110.775V141.581Z" fill="#F1F1F1"/>
</svg>
